hw6-pstat131
…
7.) Finding roc_auc of our best model.

best_tree <- select_best(tune_res_2, metric = "roc_auc")

best_tree

## # A tibble: 1 x 4
##    mtry trees min_n .config               
##   <int> <int> <int> <chr>                 
## 1     2    42     2 Preprocessor1_Model139

collect_metrics(tune_res_2) %>%
  arrange(mean)

## # A tibble: 448 x 9
##     mtry trees min_n .metric .estimator  mean     n std_err .config             
##    <int> <int> <int> <chr>   <chr>      <dbl> <int>   <dbl> <chr>               
##  1     1    42     1 roc_auc hand_till  0.629     5 0.0292  Preprocessor1_Model~
##  2     1    42     0 roc_auc hand_till  0.648     5 0.0194  Preprocessor1_Model~
##  3     1    85     8 roc_auc hand_till  0.653     5 0.0211  Preprocessor1_Model~
##  4     1    42     7 roc_auc hand_till  0.654     5 0.0236  Preprocessor1_Model~
##  5     1    42     8 roc_auc hand_till  0.655     5 0.0194  Preprocessor1_Model~
##  6     7    42    10 roc_auc hand_till  0.658     5 0.0129  Preprocessor1_Model~
##  7     1    42    10 roc_auc hand_till  0.659     5 0.0159  Preprocessor1_Model~
##  8     1    85     0 roc_auc hand_till  0.662     5 0.0176  Preprocessor1_Model~
##  9     0    42     5 roc_auc hand_till  0.662     5 0.0164  Preprocessor1_Model~
## 10     2    42     5 roc_auc hand_till  0.662     5 0.00860 Preprocessor1_Model~
## # ... with 438 more rows
…
